
 
{
    "submitTitle": "Create",
    "inputs": [
        [
        {
            "name": "name",
            "label": "Company name",
            "placeholder": "Enter name of the company",
            "type": "text",
            "size": { "md": 12, "sm" : 12 }
        },
        {
            "name": "org",
            "label": "Company identifier",
            "placeholder": "Enter company identifier",
            "type": "text",
            "size": { "md": 6, "sm" : 6 }
        }]
    ]
}