{
    "submitTitle": "Done",
    "inputs": [
        [{
            "name": "password_old",
            "label": "Current password",
            "placeholder": "Old password",
            "type": "password",
            "size": { "md": 12, "sm" : 12 }
        }],
        [{
            "name": "password_new",
            "label": "New password",
            "placeholder": "New password",
            "type": "password",
            "size": { "md": 12, "sm" : 12 }
        }]
    ]
}