{
    "title": "User Profile",
    "inputs": [
        {
            "label": "Full Name:",
            "fields": [{
                "name": "firstName",
                "label": "First name",
                "type": "text"
            },
            {
                "name": "lastName",
                "type": "text"
            }]
        },
        {
            "label": "Email:",
            "fields": [{
                "name": "email",
                "type": "email"
            }] 
        }
    ]
}