
 
{
    "size": { "md": 8, "sm" : 8 },
    "submitTitle": "Done",
    "inputs": [
        [
        {
            "name": "firstName",
            "label": "First name",
            "placeholder": "First name",
            "type": "text",
            "size": { "md": 6, "sm" : 6 }
        },
        {
            "name": "lastName",
            "label": "Last Name",
            "placeholder": "Last Name",
            "type": "text",
            "size": { "md": 6, "sm" : 6 }
        }],
        [
        {
            "name": "username",
            "label": "Username",
            "placeholder": "Username",
            "type": "text",
            "size": { "md": 6, "sm" : 6 }
        },
        {
            "name": "email",
            "label": "Email",
            "placeholder": "Email",
            "type": "email",
            "size": { "md": 6, "sm" : 6 }
        }],
        [
        {
            "name": "password",
            "label": "Password",
            "placeholder": "Password",
            "type": "password",
            "size": { "md": 6, "sm" : 6 }
        }]
    ]
}